Mini-Project 2
…
Your Name Here

October 31, 2017

A new edit Edit number 2

Loading the data

contributions %>% 
  group_by(state) %>% 
  summarize(s = sum(transaction_amt))%>%
  arrange(desc(s))

## # A tibble: 58 x 2
##    state         s
##    <chr>     <dbl>
##  1    VA 425544900
##  2    DC 419637762
##  3    MD 265334938
##  4    CA 100100706
##  5    IL  38763345
##  6    NY  38058751
##  7    TX  34939875
##  8    OH  34571945
##  9    MA  34489359
## 10    FL  31585113
## # ... with 48 more rows
…
